NatName,NOMBRE,diferencia_nombre
Lago de Texcoco,Lago de Texcoco,0
Cuitzeo,Cuitzeo,0
Tancítaro,Tancitaro,1
Tecolutla,Tecolutla,0
Sierra de Taxco-Nevado de Toluca,Sierra de Taxco-Nevado de Toluca,0
Acahuizotla - Agua del Obispo,Acahuizotla-Agua del Obispo,2
Vallecitos de Zaragoza,Vallecitos de Zaragoza,0
Cuenca Baja del Balsas,Cuenca Baja del Balsas,0
Lagunas Costeras de Guerrero,Lagunas Costeras de Guerrero,0
Coalcomán-Pómaro,Coalcoman-Pomaro,2
Tlaxiaco,Tlaxiaco,0
Islas Marietas,Islas Marietas,0
Islas Marietas,Islas Marías,3
Nevado de Colima,Nevado de Colima,0
Chamela-Cuitzmala,Chamela-Cuitzmala,0
Ciénega de Tláhuac,Cienega de Tlahuac,2
Cuetzalan,Cuetzalan,0
Cañón de Lobos,Cañon de Lobos,1
Sierra de Huautla,Sierra de Huautla,0
Humedales de Alvarado,Humedales de Alvarado,0
Huayacocotla,Huayacocotla,0
Sierra del Abra-Tanchipa,Sierra del Abra-Tanchipa,0
El Carricito,El Carricito,0
Reserva Ecológica Sierra de San Juan,Reserva Ecológica Sierra de San Juan,0
Isla Isabel,Isla Isabel,0
Sierra de Valparaiso,Sierra de Valparaiso,0
Sierra de Manantlán,Sierra de Manantlan,1
Laguna de Yuriria,Laguna de Yuriria,0
Cerro Piedra Larga,Cerro Piedra Larga,0
Presa Cajón de Peñas,Presa Cajon de Penas,2
Sierra Maderas del Carmen,Sierra Maderas del Carmen,0
Sierra del Burro,Sierra del Burro,0
Presa Venustiano Carranza,Presa Venustiano Carranza,0
Laguna Madre,Laguna Madre,0
Presa el Tulillo,Presa El Tulillo,0
San Juan de Camarones,San Juan de Camarones,0
Río Presidio-Pueblo Nuevo,Río Presidio-Pueblo Nuevo,0
El Manantial,El Manantial,0
Presa Vicente Guerrero,Presa Vicente Guerrero,0
Parras de la Fuente,Parras de la Fuente,0
El Cielo,El Cielo,0
Bahía Magdalena-Almejas,Bahía Magdalena-Almejas,0
Oasis San Ignacio,Oasis San Ignacio,0
Ensenada de la Paz,Ensenada de la Paz,0
Sierra La Giganta,Sierra la Giganta,0
Complejo Lagunar San Ignacio,Complejo Lagunar San Ignacio,0
Isla Natividad,Isla Natividad,0
Islas Benitos,Isla Benitos,1
Complejo Lagunar Ojo de Liebre,Complejo Lagunar Ojo de Liebre,0
Área San Quintín,Area San Quintin,2
Sierra Juárez,Sierra Juárez,0
Delta del Río Colorado,Delta del Río Colorado,0
Isla Cerralvo,Isla Cerralvo,0
Isla San Pedro Nolasco,Isla San Pedro Nolasco,0
Sistema de Sierras de la Sierra Madre Occidental,Sistema de Sierras de la Sierra Madre Occidental,0
Alamos-Río Mayo,Alamos-Río Mayo,0
Sistema Tóbari,Sistema Tobari,1
Agiabampo,Agiabampo,0
Janos-Nuevo Casas Grandes,Janos-Nuevo Casas Grandes,0
Sierra del Nido,Sierra del Nido,0
Estero de San José,Estero de San Jose,1
Oasis La Purísima y San Isidro,Oasis la Purisima y San Isidro,1
Oasis San Pedro de la Presa,Oasis San Pedro de La Presa,0
Oasis Punta San Pedro-Todos Santos,Oasis Punta San Pedro-Todos Santos,0
Ensenada de Pabellones,Ensenada Pabellones,3
Río Metlac,Río Metlac,0
Sierra de Tabasco,Sierra de Tabasco,0
Chimalapas,Chimalapas,0
Cerros de Tapalapa,Cerros de Tapalapa,0
Cerro Saybal-Cerro Cavahlná,Cerro Saybal-Cerro Cavahlna,1
Cordón Jolvit,Cordon Jolvit,1
Sierra Chixtontic-Sierra Canjá,Sierra Chixtontic-Sierra Canja,1
Montes Azules,Montes Azules,0
El Ocote,El Ocote,0
Laguna de Términos,Laguna de Términos,0
Calakmul,Calakmul,0
Sierra de Ticúl-Punto Put,Sierra de Ticul-Punto Put,1
Isla Contoy,Isla Contoy,0
Corredor Central Vallarta-Punta Laguna,Corredor Central Vallarta-Punta Laguna,0
Isla Cozumel,Isla Cozumel,0
Sian Ka'an,Sian Ka'An,0
Sur de Quintana Roo,Sur de Quintana Roo,0
Sierra Anover,Sierra Anover,0
Cerros de Chalchihuitán,Cerros de Chalchihuitan,1
Cerro de Oro,Cerro de Oro,0
Corredor Calakmul-Sian Ka'an,Corredor Calakmul-Sian Ka'An,0
Zapotal - Mactumatza,Zapotal-Mactumatza,2
El Tacaná,El Tacana,1
Uyumil Ce'h,Uyumil C'Eh,1
Mesa de Guacamayas,Mesa de Guacamayas,0
Cebadillas,Cebadillas,0
Maderas Chihuahua,Maderas Chihuahua,0
Islas Coronado,Islas Coronado,0
Laguna de Manialtepec,Laguna de Manialtepec,0
Laguna de Chacahua-Pastoría,Laguna de Chacahua-Pastoria,1
Isla Ángel de la Guarda,Isla Angel de la Guarda,1
Bahía Santa María,Bahía Santa Maria,1
Desembocadura del Río Soto La Marina,Desembocadura del Río Soto la Marina,0
Rancho Los Colorados y área de influencia,Rancho los Colorados y Area de Influencia,1
San Nicolás de los Montes,San Nicolas de los Montes,1
Istmo de Tehuantepec - Mar Muerto,Istmo de Tehuantepec-Mar Muerto,2
Archipiélago San José,Archipiélago San Jose,1
Cañón del Zopilote,Cañon del Zopilote,1
Cuatro Ciénegas,Cuatro Cienegas,1
Isla Tortuga,Isla Tortuga,0
Islas Marías,Islas Marietas,3
Islas Marías,Islas Marías,0
Lagos de Montebello,Lagos de Montebello,0
San Antonio Peña Nevada,San Antonio Pena Nevada,1
Sierra de Arteaga,Sierra de Arteaga,0
Sierra de La Laguna,Sierra de la Laguna,0
Sierra de Miahuatlán,Sierra de Miahuatlan,1
Sur del Valle de México,Sur del Valle De México,0
Isla Guadalupe,Isla Guadalupe,0
Sierra de Atoyac y Bosques de Niebla de la Costa Grande,Sierra de Atoyac y bosques de niebla de la costa grande,0
Los Tuxtlas,Los Tuxtlas,0
Pradera de Tokio,Pradera de Tokio,0
Bahía de Ceuta-Cospita,Bahía de Ceuta-Cospita,0
Bosques Montanos de Zacapoaxtla y Zautla,Bosques Montanos de Zacapoaxtla y Zautla,0
Cuenca baja del Río Papagayo,Cuenca baja del Río Papagayo,0
El Mineral de Nuestra Señora,El Mineral de Nuestra Señora,0
Estero Cardonal,Estero Cardonal,0
Estero Santa Cruz,Estero Santa Cruz,0
Farallon San Ignacio,Farallon de San Ignacio,3
Isla Alcatraz,Isla Alcatraz,0
Laguna Cuyutlán y Estero Palo Verde,Laguna Cuyutlan y Estero Palo Verde,1
Marismas Nacionales,Marismas Nacionales,0
Morros El Potosí,Morros el Potosi,1
"Papalutla, Sierra de Tecaballo",Papalutla Sierra de Tecaballo,1
Papigochi,Papigochi,0
Presa de Valsequillo,Presa de Valsequillo,0
"Quebradas de Sinaloa, Nayarit y Durango",Quebradas de Sinaloa Nayarit y Durango,1
Selvas Nayaritas,Selvas Nayaritas,0
Sierra de Petatlán,Sierra de Petatlan,1
Sierra de Zongolica y Tenango,Sierra de Zongolica y Tenango,0
Tlanchinol y bosques de montaña del noreste de Hidalgo,Tlanchinol y bosques de montaña del noreste de Hidalgo,0
Sistema Guásimas,Sistema Guasimas,1
Sistema Algodones,Sistema Algodones,0
Estero Lobos,Estero Lobos,0
Piélagos,Pielagos,1
Las Bufas,Las Bufas,0
Sierra de Organos,Sierra de Organos,0
La Michilía,La Michilia,1
Guacamayita,Guacamayita,0
Monte Escobedo,Monte Escobedo,0
Sierra Fría,Sierra Fria,1
Bahía Todos Santos,Bahía Todos Santos,0
Sistema San Luis Gonzaga,Sistema San Luis Gonzaga,0
Isla San Jerónimo,Isla San Jeronimo,1
Archipiélago Bahía de los Angeles,Archipiélago Bahía de los Angeles,0
Isla San Marcos,Isla San Marcos,0
Isla San Roque,Isla San Roque,0
Isla Asunción,Isla Asuncion,1
Isla Espíritu Santo,Isla Espiritu Santo,1
Bahía e Islas de San Jorge,Bahía e Islas de San Jorge,0
Cuenca del Río Yaqui,Cuenca del Río Yaqui,0
Área Natural Sierra Zapalinamé,Area Natural Sierra Zapaliname,2
Sierra de San Carlos,Sierra de San Carlos,0
Sierra de Tamaulipas,Sierra de Tamaulipas,0
Cerro del Metate,Cerro del Metate,0
Sierra de Santa Rosa,Sierra de Santa Rosa,0
Tacámbaro,Tacambaro,1
Sierra Chincua,Sierra Chincua,0
La Malinche,La Malinche,0
Grutas de Cacahuamilpa,Grutas de Cacahuamilpa,0
Arrecife Alacranes,Arrecife Alacranes,0
Humedales del Sur de Tamaulipas y Norte de Veracruz,Humedales del Sur de Tamaulipas y Norte de Veracruz,0
Archipiélago Loreto,Archipiélago Loreto,0
Islas Revillagigedo,Islas Revillagigedo,0
Archipiélago Salsipuedes,Archipiélago Salsipuedes,0
Lago de Chapala,Laguna de Chapala,3
Omiltemi,Omiltemi,0
Pantanos de Centla,Pantanos de Centla,0
Centro de Veracruz,Centro de Veracruz,0
Reserva de la Biósfera Sierra Gorda,Reserva de la Biosfera Sierra Gorda,1
Babícora,Babicora,1
Ciénegas del Lerma,Cienegas del Lerma,1
Delta del Río Bravo,Delta del Río Bravo,0
Isla San Pedro Mártir,Isla San Pedro Martir,1
Sistema Lagunario Huizache-Caimanero,Sistema laguna Río Huizache-Caimanero,2
Santiaguillo,Santiaguillo,0
Parte Alta del Río Humaya,Parte alta del Río Humaya,0
Estero del Soldado,Estero del Soldado,0
Bahía Lechuguilla,Bahía Lechuguilla,0
Selvas Secas de San Ignacio,Selvas Secas de San Ignacio,0
Corredor de Barrancas de la Sierra Madre Occidental,Corredor de Barrancas de la Sierra Madre Occidental,0
Sierra Norte,Sierra Norte,0
La Encrucijada,La Encrucijada,0
Laguna Pampa El Cabildo,Laguna Pampa El Cabildo,0
Presa Temascal,Presa Temascal,0
Uxpanapa,Uxpanapa,0
La Sepultura,La Sepultura,0
El Triunfo,El Triunfo,0
Reserva Estatal de Dzilám,Reserva Estatal de Dzilam,1
Ichka' Ansijo,Ichka' Ansijo,0
Ría Lagartos,Ria Lagartos,1
Yum Balám,Yum-Balam,2
Ría Celestún,Ria Celestun,2
Los Petenes,Los Petenes,0
Sierra Catorce,Sierra Catorce,0
Isla San Ildefonso,Isla San Ildefonso,0
